PROVINCIA;MUNICIPIO;ESTACION;MAGNITUD;PUNTO_MUESTREO;ANO;MES;DIA;HORAS;DATOS
28;079;8;8;28079008_8_8;2020;04;11;H01;00009
28;079;8;8;28079008_8_8;2020;04;11;H02;00008
28;079;8;8;28079008_8_8;2020;04;11;H03;00008
28;079;8;8;28079008_8_8;2020;04;11;H04;00008
28;079;8;8;28079008_8_8;2020;04;11;H05;00009
28;079;8;8;28079008_8_8;2020;04;11;H06;00009
28;079;8;8;28079008_8_8;2020;04;11;H07;00012
28;079;8;8;28079008_8_8;2020;04;11;H08;00014
28;079;8;8;28079008_8_8;2020;04;11;H09;00016
28;079;8;8;28079008_8_8;2020;04;11;H10;00017
28;079;8;8;28079008_8_8;2020;04;11;H11;00015
28;079;8;8;28079008_8_8;2020;04;11;H12;00015
28;079;8;8;28079008_8_8;2020;04;11;H13;00013
28;079;8;8;28079008_8_8;2020;04;11;H14;00011
28;079;8;8;28079008_8_8;2020;04;11;H15;00010
28;079;8;8;28079008_8_8;2020;04;11;H16;00008
28;079;8;8;28079008_8_8;2020;04;11;H17;00007
28;079;8;8;28079008_8_8;2020;04;11;H18;00007
28;079;8;8;28079008_8_8;2020;04;11;H19;00007
28;079;8;8;28079008_8_8;2020;04;11;H20;00007
28;079;8;8;28079008_8_8;2020;04;11;H21;00000
28;079;8;8;28079008_8_8;2020;04;11;H22;00000
28;079;8;8;28079008_8_8;2020;04;11;H23;00000
28;079;8;8;28079008_8_8;2020;04;11;H24;00000
28;079;11;8;28079011_8_8;2020;04;11;H01;00006
28;079;11;8;28079011_8_8;2020;04;11;H02;00005
28;079;11;8;28079011_8_8;2020;04;11;H03;00005
28;079;11;8;28079011_8_8;2020;04;11;H04;00005
28;079;11;8;28079011_8_8;2020;04;11;H05;00007
28;079;11;8;28079011_8_8;2020;04;11;H06;00009
28;079;11;8;28079011_8_8;2020;04;11;H07;00011
28;079;11;8;28079011_8_8;2020;04;11;H08;00009
28;079;11;8;28079011_8_8;2020;04;11;H09;00009
28;079;11;8;28079011_8_8;2020;04;11;H10;00011
28;079;11;8;28079011_8_8;2020;04;11;H11;00010
28;079;11;8;28079011_8_8;2020;04;11;H12;00008
28;079;11;8;28079011_8_8;2020;04;11;H13;00007
28;079;11;8;28079011_8_8;2020;04;11;H14;00006
28;079;11;8;28079011_8_8;2020;04;11;H15;00007
28;079;11;8;28079011_8_8;2020;04;11;H16;00006
28;079;11;8;28079011_8_8;2020;04;11;H17;00004
28;079;11;8;28079011_8_8;2020;04;11;H18;00004
28;079;11;8;28079011_8_8;2020;04;11;H19;00005
28;079;11;8;28079011_8_8;2020;04;11;H20;00004
28;079;11;8;28079011_8_8;2020;04;11;H21;00000
28;079;11;8;28079011_8_8;2020;04;11;H22;00000
28;079;11;8;28079011_8_8;2020;04;11;H23;00000
28;079;11;8;28079011_8_8;2020;04;11;H24;00000
28;079;16;8;28079016_8_8;2020;04;11;H01;00004
28;079;16;8;28079016_8_8;2020;04;11;H02;00002
28;079;16;8;28079016_8_8;2020;04;11;H03;00002
28;079;16;8;28079016_8_8;2020;04;11;H04;00002
28;079;16;8;28079016_8_8;2020;04;11;H05;00004
28;079;16;8;28079016_8_8;2020;04;11;H06;00006
28;079;16;8;28079016_8_8;2020;04;11;H07;00012
28;079;16;8;28079016_8_8;2020;04;11;H08;00011
28;079;16;8;28079016_8_8;2020;04;11;H09;00015
28;079;16;8;28079016_8_8;2020;04;11;H10;00009
28;079;16;8;28079016_8_8;2020;04;11;H11;00006
28;079;16;8;28079016_8_8;2020;04;11;H12;00006
28;079;16;8;28079016_8_8;2020;04;11;H13;00004
28;079;16;8;28079016_8_8;2020;04;11;H14;00004
28;079;16;8;28079016_8_8;2020;04;11;H15;00004
28;079;16;8;28079016_8_8;2020;04;11;H16;00003
28;079;16;8;28079016_8_8;2020;04;11;H17;00001
28;079;16;8;28079016_8_8;2020;04;11;H18;00002
28;079;16;8;28079016_8_8;2020;04;11;H19;00003
28;079;16;8;28079016_8_8;2020;04;11;H20;00003
28;079;16;8;28079016_8_8;2020;04;11;H21;00000
28;079;16;8;28079016_8_8;2020;04;11;H22;00000
28;079;16;8;28079016_8_8;2020;04;11;H23;00000
28;079;16;8;28079016_8_8;2020;04;11;H24;00000
28;079;17;8;28079017_8_8;2020;04;11;H01;00007
28;079;17;8;28079017_8_8;2020;04;11;H02;00008
28;079;17;8;28079017_8_8;2020;04;11;H03;00011
28;079;17;8;28079017_8_8;2020;04;11;H04;00012
28;079;17;8;28079017_8_8;2020;04;11;H05;00009
28;079;17;8;28079017_8_8;2020;04;11;H06;00008
28;079;17;8;28079017_8_8;2020;04;11;H07;00014
28;079;17;8;28079017_8_8;2020;04;11;H08;00019
28;079;17;8;28079017_8_8;2020;04;11;H09;00020
28;079;17;8;28079017_8_8;2020;04;11;H10;00013
28;079;17;8;28079017_8_8;2020;04;11;H11;00010
28;079;17;8;28079017_8_8;2020;04;11;H12;00009
28;079;17;8;28079017_8_8;2020;04;11;H13;00007
28;079;17;8;28079017_8_8;2020;04;11;H14;00008
28;079;17;8;28079017_8_8;2020;04;11;H15;00006
28;079;17;8;28079017_8_8;2020;04;11;H16;00005
28;079;17;8;28079017_8_8;2020;04;11;H17;00005
28;079;17;8;28079017_8_8;2020;04;11;H18;00005
28;079;17;8;28079017_8_8;2020;04;11;H19;00005
28;079;17;8;28079017_8_8;2020;04;11;H20;00005
28;079;17;8;28079017_8_8;2020;04;11;H21;00000
28;079;17;8;28079017_8_8;2020;04;11;H22;00000
28;079;17;8;28079017_8_8;2020;04;11;H23;00000
28;079;17;8;28079017_8_8;2020;04;11;H24;00000
28;079;18;8;28079018_8_8;2020;04;11;H01;00010
28;079;18;8;28079018_8_8;2020;04;11;H02;00008
28;079;18;8;28079018_8_8;2020;04;11;H03;00016
28;079;18;8;28079018_8_8;2020;04;11;H04;00009
28;079;18;8;28079018_8_8;2020;04;11;H05;00006
28;079;18;8;28079018_8_8;2020;04;11;H06;00004
28;079;18;8;28079018_8_8;2020;04;11;H07;00007
28;079;18;8;28079018_8_8;2020;04;11;H08;00010
28;079;18;8;28079018_8_8;2020;04;11;H09;00012
28;079;18;8;28079018_8_8;2020;04;11;H10;00011
28;079;18;8;28079018_8_8;2020;04;11;H11;00010
28;079;18;8;28079018_8_8;2020;04;11;H12;00009
28;079;18;8;28079018_8_8;2020;04;11;H13;00009
28;079;18;8;28079018_8_8;2020;04;11;H14;00006
28;079;18;8;28079018_8_8;2020;04;11;H15;00006
28;079;18;8;28079018_8_8;2020;04;11;H16;00004
28;079;18;8;28079018_8_8;2020;04;11;H17;00004
28;079;18;8;28079018_8_8;2020;04;11;H18;00004
28;079;18;8;28079018_8_8;2020;04;11;H19;00004
28;079;18;8;28079018_8_8;2020;04;11;H20;00004
28;079;18;8;28079018_8_8;2020;04;11;H21;00000
28;079;18;8;28079018_8_8;2020;04;11;H22;00000
28;079;18;8;28079018_8_8;2020;04;11;H23;00000
28;079;18;8;28079018_8_8;2020;04;11;H24;00000
28;079;24;8;28079024_8_8;2020;04;11;H01;00008
28;079;24;8;28079024_8_8;2020;04;11;H02;00010
28;079;24;8;28079024_8_8;2020;04;11;H03;00008
28;079;24;8;28079024_8_8;2020;04;11;H04;00003
28;079;24;8;28079024_8_8;2020;04;11;H05;00005
28;079;24;8;28079024_8_8;2020;04;11;H06;00004
28;079;24;8;28079024_8_8;2020;04;11;H07;00006
28;079;24;8;28079024_8_8;2020;04;11;H08;00007
28;079;24;8;28079024_8_8;2020;04;11;H09;00007
28;079;24;8;28079024_8_8;2020;04;11;H10;00009
28;079;24;8;28079024_8_8;2020;04;11;H11;00009
28;079;24;8;28079024_8_8;2020;04;11;H12;00009
28;079;24;8;28079024_8_8;2020;04;11;H13;00008
28;079;24;8;28079024_8_8;2020;04;11;H14;00006
28;079;24;8;28079024_8_8;2020;04;11;H15;00004
28;079;24;8;28079024_8_8;2020;04;11;H16;00004
28;079;24;8;28079024_8_8;2020;04;11;H17;00002
28;079;24;8;28079024_8_8;2020;04;11;H18;00002
28;079;24;8;28079024_8_8;2020;04;11;H19;00002
28;079;24;8;28079024_8_8;2020;04;11;H20;00003
28;079;24;8;28079024_8_8;2020;04;11;H21;00000
28;079;24;8;28079024_8_8;2020;04;11;H22;00000
28;079;24;8;28079024_8_8;2020;04;11;H23;00000
28;079;24;8;28079024_8_8;2020;04;11;H24;00000
28;079;27;8;28079027_8_8;2020;04;11;H01;00004
28;079;27;8;28079027_8_8;2020;04;11;H02;00004
28;079;27;8;28079027_8_8;2020;04;11;H03;00006
28;079;27;8;28079027_8_8;2020;04;11;H04;00003
28;079;27;8;28079027_8_8;2020;04;11;H05;00010
28;079;27;8;28079027_8_8;2020;04;11;H06;00007
28;079;27;8;28079027_8_8;2020;04;11;H07;00014
28;079;27;8;28079027_8_8;2020;04;11;H08;00009
28;079;27;8;28079027_8_8;2020;04;11;H09;00007
28;079;27;8;28079027_8_8;2020;04;11;H10;00008
28;079;27;8;28079027_8_8;2020;04;11;H11;00006
28;079;27;8;28079027_8_8;2020;04;11;H12;00003
28;079;27;8;28079027_8_8;2020;04;11;H13;00003
28;079;27;8;28079027_8_8;2020;04;11;H14;00003
28;079;27;8;28079027_8_8;2020;04;11;H15;00003
28;079;27;8;28079027_8_8;2020;04;11;H16;00002
28;079;27;8;28079027_8_8;2020;04;11;H17;00002
28;079;27;8;28079027_8_8;2020;04;11;H18;00002
28;079;27;8;28079027_8_8;2020;04;11;H19;00002
28;079;27;8;28079027_8_8;2020;04;11;H20;00003
28;079;27;8;28079027_8_8;2020;04;11;H21;00000
28;079;27;8;28079027_8_8;2020;04;11;H22;00000
28;079;27;8;28079027_8_8;2020;04;11;H23;00000
28;079;27;8;28079027_8_8;2020;04;11;H24;00000
28;079;35;8;28079035_8_8;2020;04;11;H01;00006
28;079;35;8;28079035_8_8;2020;04;11;H02;00006
28;079;35;8;28079035_8_8;2020;04;11;H03;00008
28;079;35;8;28079035_8_8;2020;04;11;H04;00006
28;079;35;8;28079035_8_8;2020;04;11;H05;00008
28;079;35;8;28079035_8_8;2020;04;11;H06;00008
28;079;35;8;28079035_8_8;2020;04;11;H07;00016
28;079;35;8;28079035_8_8;2020;04;11;H08;00015
28;079;35;8;28079035_8_8;2020;04;11;H09;00017
28;079;35;8;28079035_8_8;2020;04;11;H10;00015
28;079;35;8;28079035_8_8;2020;04;11;H11;00014
28;079;35;8;28079035_8_8;2020;04;11;H12;00011
28;079;35;8;28079035_8_8;2020;04;11;H13;00010
28;079;35;8;28079035_8_8;2020;04;11;H14;00010
28;079;35;8;28079035_8_8;2020;04;11;H15;00009
28;079;35;8;28079035_8_8;2020;04;11;H16;00007
28;079;35;8;28079035_8_8;2020;04;11;H17;00005
28;079;35;8;28079035_8_8;2020;04;11;H18;00005
28;079;35;8;28079035_8_8;2020;04;11;H19;00004
28;079;35;8;28079035_8_8;2020;04;11;H20;00005
28;079;35;8;28079035_8_8;2020;04;11;H21;00000
28;079;35;8;28079035_8_8;2020;04;11;H22;00000
28;079;35;8;28079035_8_8;2020;04;11;H23;00000
28;079;35;8;28079035_8_8;2020;04;11;H24;00000
28;079;36;8;28079036_8_8;2020;04;11;H01;00004
28;079;36;8;28079036_8_8;2020;04;11;H02;00004
28;079;36;8;28079036_8_8;2020;04;11;H03;00004
28;079;36;8;28079036_8_8;2020;04;11;H04;00004
28;079;36;8;28079036_8_8;2020;04;11;H05;00005
28;079;36;8;28079036_8_8;2020;04;11;H06;00009
28;079;36;8;28079036_8_8;2020;04;11;H07;00011
28;079;36;8;28079036_8_8;2020;04;11;H08;00011
28;079;36;8;28079036_8_8;2020;04;11;H09;00013
28;079;36;8;28079036_8_8;2020;04;11;H10;00014
28;079;36;8;28079036_8_8;2020;04;11;H11;00011
28;079;36;8;28079036_8_8;2020;04;11;H12;00010
28;079;36;8;28079036_8_8;2020;04;11;H13;00010
28;079;36;8;28079036_8_8;2020;04;11;H14;00009
28;079;36;8;28079036_8_8;2020;04;11;H15;00007
28;079;36;8;28079036_8_8;2020;04;11;H16;00006
28;079;36;8;28079036_8_8;2020;04;11;H17;00006
28;079;36;8;28079036_8_8;2020;04;11;H18;00005
28;079;36;8;28079036_8_8;2020;04;11;H19;00006
28;079;36;8;28079036_8_8;2020;04;11;H20;00008
28;079;36;8;28079036_8_8;2020;04;11;H21;00000
28;079;36;8;28079036_8_8;2020;04;11;H22;00000
28;079;36;8;28079036_8_8;2020;04;11;H23;00000
28;079;36;8;28079036_8_8;2020;04;11;H24;00000
28;079;38;8;28079038_8_8;2020;04;11;H01;00007
28;079;38;8;28079038_8_8;2020;04;11;H02;00005
28;079;38;8;28079038_8_8;2020;04;11;H03;00005
28;079;38;8;28079038_8_8;2020;04;11;H04;00004
28;079;38;8;28079038_8_8;2020;04;11;H05;00007
28;079;38;8;28079038_8_8;2020;04;11;H06;00007
28;079;38;8;28079038_8_8;2020;04;11;H07;00010
28;079;38;8;28079038_8_8;2020;04;11;H08;00014
28;079;38;8;28079038_8_8;2020;04;11;H09;00013
28;079;38;8;28079038_8_8;2020;04;11;H10;00012
28;079;38;8;28079038_8_8;2020;04;11;H11;00009
28;079;38;8;28079038_8_8;2020;04;11;H12;00010
28;079;38;8;28079038_8_8;2020;04;11;H13;00009
28;079;38;8;28079038_8_8;2020;04;11;H14;00009
28;079;38;8;28079038_8_8;2020;04;11;H15;00008
28;079;38;8;28079038_8_8;2020;04;11;H16;00007
28;079;38;8;28079038_8_8;2020;04;11;H17;00005
28;079;38;8;28079038_8_8;2020;04;11;H18;00004
28;079;38;8;28079038_8_8;2020;04;11;H19;00005
28;079;38;8;28079038_8_8;2020;04;11;H20;00007
28;079;38;8;28079038_8_8;2020;04;11;H21;00000
28;079;38;8;28079038_8_8;2020;04;11;H22;00000
28;079;38;8;28079038_8_8;2020;04;11;H23;00000
28;079;38;8;28079038_8_8;2020;04;11;H24;00000
28;079;39;8;28079039_8_8;2020;04;11;H01;00007
28;079;39;8;28079039_8_8;2020;04;11;H02;00006
28;079;39;8;28079039_8_8;2020;04;11;H03;00004
28;079;39;8;28079039_8_8;2020;04;11;H04;00005
28;079;39;8;28079039_8_8;2020;04;11;H05;00010
28;079;39;8;28079039_8_8;2020;04;11;H06;00008
28;079;39;8;28079039_8_8;2020;04;11;H07;00010
28;079;39;8;28079039_8_8;2020;04;11;H08;00012
28;079;39;8;28079039_8_8;2020;04;11;H09;00011
28;079;39;8;28079039_8_8;2020;04;11;H10;00012
28;079;39;8;28079039_8_8;2020;04;11;H11;00010
28;079;39;8;28079039_8_8;2020;04;11;H12;00006
28;079;39;8;28079039_8_8;2020;04;11;H13;00005
28;079;39;8;28079039_8_8;2020;04;11;H14;00006
28;079;39;8;28079039_8_8;2020;04;11;H15;00005
28;079;39;8;28079039_8_8;2020;04;11;H16;00005
28;079;39;8;28079039_8_8;2020;04;11;H17;00004
28;079;39;8;28079039_8_8;2020;04;11;H18;00003
28;079;39;8;28079039_8_8;2020;04;11;H19;00005
28;079;39;8;28079039_8_8;2020;04;11;H20;00005
28;079;39;8;28079039_8_8;2020;04;11;H21;00000
28;079;39;8;28079039_8_8;2020;04;11;H22;00000
28;079;39;8;28079039_8_8;2020;04;11;H23;00000
28;079;39;8;28079039_8_8;2020;04;11;H24;00000
28;079;40;8;28079040_8_8;2020;04;11;H01;00007
28;079;40;8;28079040_8_8;2020;04;11;H02;00007
28;079;40;8;28079040_8_8;2020;04;11;H03;00006
28;079;40;8;28079040_8_8;2020;04;11;H04;00005
28;079;40;8;28079040_8_8;2020;04;11;H05;00005
28;079;40;8;28079040_8_8;2020;04;11;H06;00007
28;079;40;8;28079040_8_8;2020;04;11;H07;00013
28;079;40;8;28079040_8_8;2020;04;11;H08;00015
28;079;40;8;28079040_8_8;2020;04;11;H09;00015
28;079;40;8;28079040_8_8;2020;04;11;H10;00014
28;079;40;8;28079040_8_8;2020;04;11;H11;00009
28;079;40;8;28079040_8_8;2020;04;11;H12;00007
28;079;40;8;28079040_8_8;2020;04;11;H13;00006
28;079;40;8;28079040_8_8;2020;04;11;H14;00006
28;079;40;8;28079040_8_8;2020;04;11;H15;00006
28;079;40;8;28079040_8_8;2020;04;11;H16;00005
28;079;40;8;28079040_8_8;2020;04;11;H17;00004
28;079;40;8;28079040_8_8;2020;04;11;H18;00004
28;079;40;8;28079040_8_8;2020;04;11;H19;00003
28;079;40;8;28079040_8_8;2020;04;11;H20;00004
28;079;40;8;28079040_8_8;2020;04;11;H21;00000
28;079;40;8;28079040_8_8;2020;04;11;H22;00000
28;079;40;8;28079040_8_8;2020;04;11;H23;00000
28;079;40;8;28079040_8_8;2020;04;11;H24;00000
28;079;47;8;28079047_8_8;2020;04;11;H01;00006
28;079;47;8;28079047_8_8;2020;04;11;H02;00005
28;079;47;8;28079047_8_8;2020;04;11;H03;00006
28;079;47;8;28079047_8_8;2020;04;11;H04;00005
28;079;47;8;28079047_8_8;2020;04;11;H05;00006
28;079;47;8;28079047_8_8;2020;04;11;H06;00007
28;079;47;8;28079047_8_8;2020;04;11;H07;00011
28;079;47;8;28079047_8_8;2020;04;11;H08;00014
28;079;47;8;28079047_8_8;2020;04;11;H09;00015
28;079;47;8;28079047_8_8;2020;04;11;H10;00013
28;079;47;8;28079047_8_8;2020;04;11;H11;00010
28;079;47;8;28079047_8_8;2020;04;11;H12;00009
28;079;47;8;28079047_8_8;2020;04;11;H13;00008
28;079;47;8;28079047_8_8;2020;04;11;H14;00005
28;079;47;8;28079047_8_8;2020;04;11;H15;00005
28;079;47;8;28079047_8_8;2020;04;11;H16;00004
28;079;47;8;28079047_8_8;2020;04;11;H17;00005
28;079;47;8;28079047_8_8;2020;04;11;H18;00003
28;079;47;8;28079047_8_8;2020;04;11;H19;00003
28;079;47;8;28079047_8_8;2020;04;11;H20;00004
28;079;47;8;28079047_8_8;2020;04;11;H21;00000
28;079;47;8;28079047_8_8;2020;04;11;H22;00000
28;079;47;8;28079047_8_8;2020;04;11;H23;00000
28;079;47;8;28079047_8_8;2020;04;11;H24;00000
28;079;48;8;28079048_8_8;2020;04;11;H01;00010
28;079;48;8;28079048_8_8;2020;04;11;H02;00008
28;079;48;8;28079048_8_8;2020;04;11;H03;00005
28;079;48;8;28079048_8_8;2020;04;11;H04;00005
28;079;48;8;28079048_8_8;2020;04;11;H05;00006
28;079;48;8;28079048_8_8;2020;04;11;H06;00007
28;079;48;8;28079048_8_8;2020;04;11;H07;00010
28;079;48;8;28079048_8_8;2020;04;11;H08;00009
28;079;48;8;28079048_8_8;2020;04;11;H09;00008
28;079;48;8;28079048_8_8;2020;04;11;H10;00008
28;079;48;8;28079048_8_8;2020;04;11;H11;00009
28;079;48;8;28079048_8_8;2020;04;11;H12;00007
28;079;48;8;28079048_8_8;2020;04;11;H13;00005
28;079;48;8;28079048_8_8;2020;04;11;H14;00006
28;079;48;8;28079048_8_8;2020;04;11;H15;00005
28;079;48;8;28079048_8_8;2020;04;11;H16;00004
28;079;48;8;28079048_8_8;2020;04;11;H17;00003
28;079;48;8;28079048_8_8;2020;04;11;H18;00003
28;079;48;8;28079048_8_8;2020;04;11;H19;00005
28;079;48;8;28079048_8_8;2020;04;11;H20;00006
28;079;48;8;28079048_8_8;2020;04;11;H21;00000
28;079;48;8;28079048_8_8;2020;04;11;H22;00000
28;079;48;8;28079048_8_8;2020;04;11;H23;00000
28;079;48;8;28079048_8_8;2020;04;11;H24;00000
28;079;49;8;28079049_8_8;2020;04;11;H01;00005
28;079;49;8;28079049_8_8;2020;04;11;H02;00004
28;079;49;8;28079049_8_8;2020;04;11;H03;00005
28;079;49;8;28079049_8_8;2020;04;11;H04;00003
28;079;49;8;28079049_8_8;2020;04;11;H05;00003
28;079;49;8;28079049_8_8;2020;04;11;H06;00004
28;079;49;8;28079049_8_8;2020;04;11;H07;00009
28;079;49;8;28079049_8_8;2020;04;11;H08;00011
28;079;49;8;28079049_8_8;2020;04;11;H09;00012
28;079;49;8;28079049_8_8;2020;04;11;H10;00011
28;079;49;8;28079049_8_8;2020;04;11;H11;00009
28;079;49;8;28079049_8_8;2020;04;11;H12;00009
28;079;49;8;28079049_8_8;2020;04;11;H13;00007
28;079;49;8;28079049_8_8;2020;04;11;H14;00005
28;079;49;8;28079049_8_8;2020;04;11;H15;00004
28;079;49;8;28079049_8_8;2020;04;11;H16;00003
28;079;49;8;28079049_8_8;2020;04;11;H17;00003
28;079;49;8;28079049_8_8;2020;04;11;H18;00003
28;079;49;8;28079049_8_8;2020;04;11;H19;00002
28;079;49;8;28079049_8_8;2020;04;11;H20;00003
28;079;49;8;28079049_8_8;2020;04;11;H21;00000
28;079;49;8;28079049_8_8;2020;04;11;H22;00000
28;079;49;8;28079049_8_8;2020;04;11;H23;00000
28;079;49;8;28079049_8_8;2020;04;11;H24;00000
28;079;50;8;28079050_8_8;2020;04;11;H01;00005
28;079;50;8;28079050_8_8;2020;04;11;H02;00003
28;079;50;8;28079050_8_8;2020;04;11;H03;00004
28;079;50;8;28079050_8_8;2020;04;11;H04;00003
28;079;50;8;28079050_8_8;2020;04;11;H05;00004
28;079;50;8;28079050_8_8;2020;04;11;H06;00005
28;079;50;8;28079050_8_8;2020;04;11;H07;00007
28;079;50;8;28079050_8_8;2020;04;11;H08;00007
28;079;50;8;28079050_8_8;2020;04;11;H09;00008
28;079;50;8;28079050_8_8;2020;04;11;H10;00007
28;079;50;8;28079050_8_8;2020;04;11;H11;00006
28;079;50;8;28079050_8_8;2020;04;11;H12;00006
28;079;50;8;28079050_8_8;2020;04;11;H13;00004
28;079;50;8;28079050_8_8;2020;04;11;H14;00004
28;079;50;8;28079050_8_8;2020;04;11;H15;00003
28;079;50;8;28079050_8_8;2020;04;11;H16;00003
28;079;50;8;28079050_8_8;2020;04;11;H17;00002
28;079;50;8;28079050_8_8;2020;04;11;H18;00001
28;079;50;8;28079050_8_8;2020;04;11;H19;00002
28;079;50;8;28079050_8_8;2020;04;11;H20;00002
28;079;50;8;28079050_8_8;2020;04;11;H21;00000
28;079;50;8;28079050_8_8;2020;04;11;H22;00000
28;079;50;8;28079050_8_8;2020;04;11;H23;00000
28;079;50;8;28079050_8_8;2020;04;11;H24;00000
28;079;54;8;28079054_8_8;2020;04;11;H01;00010
28;079;54;8;28079054_8_8;2020;04;11;H02;00010
28;079;54;8;28079054_8_8;2020;04;11;H03;00011
28;079;54;8;28079054_8_8;2020;04;11;H04;00011
28;079;54;8;28079054_8_8;2020;04;11;H05;00011
28;079;54;8;28079054_8_8;2020;04;11;H06;00013
28;079;54;8;28079054_8_8;2020;04;11;H07;00018
28;079;54;8;28079054_8_8;2020;04;11;H08;00018
28;079;54;8;28079054_8_8;2020;04;11;H09;00022
28;079;54;8;28079054_8_8;2020;04;11;H10;00021
28;079;54;8;28079054_8_8;2020;04;11;H11;00014
28;079;54;8;28079054_8_8;2020;04;11;H12;00013
28;079;54;8;28079054_8_8;2020;04;11;H13;00012
28;079;54;8;28079054_8_8;2020;04;11;H14;00011
28;079;54;8;28079054_8_8;2020;04;11;H15;00010
28;079;54;8;28079054_8_8;2020;04;11;H16;00010
28;079;54;8;28079054_8_8;2020;04;11;H17;00010
28;079;54;8;28079054_8_8;2020;04;11;H18;00009
28;079;54;8;28079054_8_8;2020;04;11;H19;00010
28;079;54;8;28079054_8_8;2020;04;11;H20;00010
28;079;54;8;28079054_8_8;2020;04;11;H21;00000
28;079;54;8;28079054_8_8;2020;04;11;H22;00000
28;079;54;8;28079054_8_8;2020;04;11;H23;00000
28;079;54;8;28079054_8_8;2020;04;11;H24;00000
28;079;55;8;28079055_8_8;2020;04;11;H01;00001
28;079;55;8;28079055_8_8;2020;04;11;H02;00001
28;079;55;8;28079055_8_8;2020;04;11;H03;00001
28;079;55;8;28079055_8_8;2020;04;11;H04;00001
28;079;55;8;28079055_8_8;2020;04;11;H05;00002
28;079;55;8;28079055_8_8;2020;04;11;H06;00004
28;079;55;8;28079055_8_8;2020;04;11;H07;00009
28;079;55;8;28079055_8_8;2020;04;11;H08;00005
28;079;55;8;28079055_8_8;2020;04;11;H09;00006
28;079;55;8;28079055_8_8;2020;04;11;H10;00002
28;079;55;8;28079055_8_8;2020;04;11;H11;00001
28;079;55;8;28079055_8_8;2020;04;11;H12;00001
28;079;55;8;28079055_8_8;2020;04;11;H13;00001
28;079;55;8;28079055_8_8;2020;04;11;H14;00001
28;079;55;8;28079055_8_8;2020;04;11;H15;00001
28;079;55;8;28079055_8_8;2020;04;11;H16;00001
28;079;55;8;28079055_8_8;2020;04;11;H17;00001
28;079;55;8;28079055_8_8;2020;04;11;H18;00001
28;079;55;8;28079055_8_8;2020;04;11;H19;00001
28;079;55;8;28079055_8_8;2020;04;11;H20;00001
28;079;55;8;28079055_8_8;2020;04;11;H21;00000
28;079;55;8;28079055_8_8;2020;04;11;H22;00000
28;079;55;8;28079055_8_8;2020;04;11;H23;00000
28;079;55;8;28079055_8_8;2020;04;11;H24;00000
28;079;56;8;28079056_8_8;2020;04;11;H01;00017
28;079;56;8;28079056_8_8;2020;04;11;H02;00015
28;079;56;8;28079056_8_8;2020;04;11;H03;00021
28;079;56;8;28079056_8_8;2020;04;11;H04;00011
28;079;56;8;28079056_8_8;2020;04;11;H05;00010
28;079;56;8;28079056_8_8;2020;04;11;H06;00009
28;079;56;8;28079056_8_8;2020;04;11;H07;00015
28;079;56;8;28079056_8_8;2020;04;11;H08;00020
28;079;56;8;28079056_8_8;2020;04;11;H09;00019
28;079;56;8;28079056_8_8;2020;04;11;H10;00014
28;079;56;8;28079056_8_8;2020;04;11;H11;00014
28;079;56;8;28079056_8_8;2020;04;11;H12;00012
28;079;56;8;28079056_8_8;2020;04;11;H13;00012
28;079;56;8;28079056_8_8;2020;04;11;H14;00009
28;079;56;8;28079056_8_8;2020;04;11;H15;00012
28;079;56;8;28079056_8_8;2020;04;11;H16;00008
28;079;56;8;28079056_8_8;2020;04;11;H17;00007
28;079;56;8;28079056_8_8;2020;04;11;H18;00009
28;079;56;8;28079056_8_8;2020;04;11;H19;00009
28;079;56;8;28079056_8_8;2020;04;11;H20;00010
28;079;56;8;28079056_8_8;2020;04;11;H21;00000
28;079;56;8;28079056_8_8;2020;04;11;H22;00000
28;079;56;8;28079056_8_8;2020;04;11;H23;00000
28;079;56;8;28079056_8_8;2020;04;11;H24;00000
28;079;57;8;28079057_8_8;2020;04;11;H01;00004
28;079;57;8;28079057_8_8;2020;04;11;H02;00004
28;079;57;8;28079057_8_8;2020;04;11;H03;00004
28;079;57;8;28079057_8_8;2020;04;11;H04;00004
28;079;57;8;28079057_8_8;2020;04;11;H05;00004
28;079;57;8;28079057_8_8;2020;04;11;H06;00005
28;079;57;8;28079057_8_8;2020;04;11;H07;00007
28;079;57;8;28079057_8_8;2020;04;11;H08;00009
28;079;57;8;28079057_8_8;2020;04;11;H09;00010
28;079;57;8;28079057_8_8;2020;04;11;H10;00010
28;079;57;8;28079057_8_8;2020;04;11;H11;00006
28;079;57;8;28079057_8_8;2020;04;11;H12;00005
28;079;57;8;28079057_8_8;2020;04;11;H13;00005
28;079;57;8;28079057_8_8;2020;04;11;H14;00006
28;079;57;8;28079057_8_8;2020;04;11;H15;00004
28;079;57;8;28079057_8_8;2020;04;11;H16;00004
28;079;57;8;28079057_8_8;2020;04;11;H17;00003
28;079;57;8;28079057_8_8;2020;04;11;H18;00002
28;079;57;8;28079057_8_8;2020;04;11;H19;00002
28;079;57;8;28079057_8_8;2020;04;11;H20;00003
28;079;57;8;28079057_8_8;2020;04;11;H21;00000
28;079;57;8;28079057_8_8;2020;04;11;H22;00000
28;079;57;8;28079057_8_8;2020;04;11;H23;00000
28;079;57;8;28079057_8_8;2020;04;11;H24;00000
28;079;58;8;28079058_8_8;2020;04;11;H01;00004
28;079;58;8;28079058_8_8;2020;04;11;H02;00005
28;079;58;8;28079058_8_8;2020;04;11;H03;00003
28;079;58;8;28079058_8_8;2020;04;11;H04;00002
28;079;58;8;28079058_8_8;2020;04;11;H05;00002
28;079;58;8;28079058_8_8;2020;04;11;H06;00002
28;079;58;8;28079058_8_8;2020;04;11;H07;00004
28;079;58;8;28079058_8_8;2020;04;11;H08;00006
28;079;58;8;28079058_8_8;2020;04;11;H09;00006
28;079;58;8;28079058_8_8;2020;04;11;H10;00003
28;079;58;8;28079058_8_8;2020;04;11;H11;00001
28;079;58;8;28079058_8_8;2020;04;11;H12;00002
28;079;58;8;28079058_8_8;2020;04;11;H13;00002
28;079;58;8;28079058_8_8;2020;04;11;H14;00002
28;079;58;8;28079058_8_8;2020;04;11;H15;00004
28;079;58;8;28079058_8_8;2020;04;11;H16;00004
28;079;58;8;28079058_8_8;2020;04;11;H17;00004
28;079;58;8;28079058_8_8;2020;04;11;H18;00003
28;079;58;8;28079058_8_8;2020;04;11;H19;00002
28;079;58;8;28079058_8_8;2020;04;11;H20;00003
28;079;58;8;28079058_8_8;2020;04;11;H21;00000
28;079;58;8;28079058_8_8;2020;04;11;H22;00000
28;079;58;8;28079058_8_8;2020;04;11;H23;00000
28;079;58;8;28079058_8_8;2020;04;11;H24;00000
28;079;59;8;28079059_8_8;2020;04;11;H01;00003
28;079;59;8;28079059_8_8;2020;04;11;H02;00003
28;079;59;8;28079059_8_8;2020;04;11;H03;00001
28;079;59;8;28079059_8_8;2020;04;11;H04;00002
28;079;59;8;28079059_8_8;2020;04;11;H05;00004
28;079;59;8;28079059_8_8;2020;04;11;H06;00010
28;079;59;8;28079059_8_8;2020;04;11;H07;00005
28;079;59;8;28079059_8_8;2020;04;11;H08;00006
28;079;59;8;28079059_8_8;2020;04;11;H09;00011
28;079;59;8;28079059_8_8;2020;04;11;H10;00006
28;079;59;8;28079059_8_8;2020;04;11;H11;00004
28;079;59;8;28079059_8_8;2020;04;11;H12;00002
28;079;59;8;28079059_8_8;2020;04;11;H13;00002
28;079;59;8;28079059_8_8;2020;04;11;H14;00002
28;079;59;8;28079059_8_8;2020;04;11;H15;00002
28;079;59;8;28079059_8_8;2020;04;11;H16;00002
28;079;59;8;28079059_8_8;2020;04;11;H17;00001
28;079;59;8;28079059_8_8;2020;04;11;H18;00001
28;079;59;8;28079059_8_8;2020;04;11;H19;00001
28;079;59;8;28079059_8_8;2020;04;11;H20;00001
28;079;59;8;28079059_8_8;2020;04;11;H21;00000
28;079;59;8;28079059_8_8;2020;04;11;H22;00000
28;079;59;8;28079059_8_8;2020;04;11;H23;00000
28;079;59;8;28079059_8_8;2020;04;11;H24;00000
28;079;60;8;28079060_8_8;2020;04;11;H01;00008
28;079;60;8;28079060_8_8;2020;04;11;H02;00007
28;079;60;8;28079060_8_8;2020;04;11;H03;00007
28;079;60;8;28079060_8_8;2020;04;11;H04;00005
28;079;60;8;28079060_8_8;2020;04;11;H05;00005
28;079;60;8;28079060_8_8;2020;04;11;H06;00007
28;079;60;8;28079060_8_8;2020;04;11;H07;00008
28;079;60;8;28079060_8_8;2020;04;11;H08;00009
28;079;60;8;28079060_8_8;2020;04;11;H09;00010
28;079;60;8;28079060_8_8;2020;04;11;H10;00015
28;079;60;8;28079060_8_8;2020;04;11;H11;00007
28;079;60;8;28079060_8_8;2020;04;11;H12;00005
28;079;60;8;28079060_8_8;2020;04;11;H13;00004
28;079;60;8;28079060_8_8;2020;04;11;H14;00005
28;079;60;8;28079060_8_8;2020;04;11;H15;00004
28;079;60;8;28079060_8_8;2020;04;11;H16;00005
28;079;60;8;28079060_8_8;2020;04;11;H17;00004
28;079;60;8;28079060_8_8;2020;04;11;H18;00003
28;079;60;8;28079060_8_8;2020;04;11;H19;00003
28;079;60;8;28079060_8_8;2020;04;11;H20;00004
28;079;60;8;28079060_8_8;2020;04;11;H21;00000
28;079;60;8;28079060_8_8;2020;04;11;H22;00000
28;079;60;8;28079060_8_8;2020;04;11;H23;00000
28;079;60;8;28079060_8_8;2020;04;11;H24;00000
